[
	{
		"checkId": "00000000000000001",
	    "title": "Easy to release",
	    "pros": "Releasing is simple, safe, painless & mostly automated.",
	    "cons": "Releasing is risky, painful, lots of manual work, and takes forever.",
	    "private": false
	},
	{
		"checkId": "00000000000000002",
	    "title": "Suitable process",
	    "pros": "Our way of working fits us perfectly.",
	    "cons": "Our way of working sucks.",
	    "private": false
	},
	{
		"checkId": "00000000000000003",
	    "title": "Tech quality (code base health)",
	    "pros": "We’re proud of the quality of our code! It is clean, easy to read, and has great test coverage.",
	    "cons": "Our code is a pile of dung, and technical debt is raging out of control.",
	    "private": false
	},
	{
		"checkId": "00000000000000004",
	    "title": "Value",
	    "pros": "We deliver great stuff! We’re proud of it and our stakeholders are really happy.",
	    "cons": "We deliver crap. We feel ashamed to deliver it. Our stakeholders hate us.",
	    "private": false
	},
	{
		"checkId": "00000000000000005",
	    "title": "Speed",
	    "pros": "We get stuff done really quickly. No waiting, no delays.",
	    "cons": "We never seem to get done with anything. We keep getting stuck or interrupted. Stories keep getting stuck on dependencies.",
	    "private": false
	},
	{
		"checkId": "00000000000000006",
	    "title": "Mission",
	    "pros": "We know exactly why we are here, and we are really excited about it.",
	    "cons": "We have no idea why we are here, there is no high level picture or focus. Our so-called mission is completely unclear and uninspiring.",
	    "private": false
	},
	{
		"checkId": "00000000000000007",
	    "title": "Fun",
	    "pros": "We love going to work, and have great fun working together.",
	    "cons": "Boooooooring.",
	    "private": false
	},
	{
		"checkId": "00000000000000008",
	    "title": "Learning",
	    "pros": "We’re learning lots of interesting stuff all the time!",
	    "cons": "We never have time to learn anything.",
	    "private": false
	},
	{
		"checkId": "00000000000000009",
	    "title": "Support",
	    "pros": "We always get great support & help when we ask for it!",
	    "cons": "We keep getting stuck because we can’t get the support & help that we ask for.",
	    "private": false
	},
	{
		"checkId": "00000000000000010",
	    "title": "Pawns or Players",
	    "pros": "We are in control of our destiny! We decide what to build and how to build it.",
	    "cons": "We are just pawns in a game of chess, with no influence over what we build or how we build it.",
	    "private": false
	}
]